$\si{\ampere}$;Ampere
$\si{\atmosphere}$;Atmosphäre
$\si{\bar}$;Bar
$\si{\cm}$;Centimeter
$\si{\coulomb}$;Coulomb
$\si{\degreeCelsius}$;Grad Celsius
$\si{\dm}$;Dezimeter
$\si{\gram}$;Gramm
$\si{\hecto}$;Hecto
$\si{\horsepower}$;Pferdestärke
$\si{\hour}$;Stunde
$\si{\joule}$;Joule
$\si{\kelvin}$;Kelvin
$\si{\kilo}$;Kilo
$\si{\kilogram}$;Kilogramm
$\si{\liter}$;Liter
$\si{\mega}$;Mega
$\si{\metre}$;Meter
$\si{\milli}$;Milli
$\si{\mm}$;Millimeter
$\si{\mole}$;Mol
$\si{\newton}$;Newton
$\si{\ohm}$;Ohm
$\si{\pascal}$;Pascal
$\si{\second}$;Sekunde
$\si{\teilch}$;Teilchen
$\si{\tesla}$;Tesla
$\si{\torr}$;Torr
$\si{\volt}$;Volt
$\si{\watt}$;Watt
;